[ 
	{
		"site":"redliontrader.com",
		"type":"wordpress",
		"database" : "redliontrader_com",
		"databaseUser" : "root",
		"databasePassword" :"tulipbulb",
		"root":"/var/www/redliontrader_com/wordpress",
		"contacts":"watch@fortunesrocks.me",
		"ownerEmail":"forg@fortunesrocks.me",
		"ownerName":"marlin cobb",
		"user":"redliontrader_com",
		"wpPermissions" : {
			"exempt" : [
				"attack-data.php",
				"config.php",
				"ips.php",
				"rules.php",
				"wafRules.rules"
			]
		},	
		"surveillance" : [
		],
		"clam": {
			"exempt" : [
				"/ninjafirewall/lib/share/sigs.txt: SecuriteInfo.com.JS.Exploit-16.UNOFFICIAL FOUND"
			]
		},
		"noPHP" : [
			{ 
				"path": "wp-content/uploads",
				"action": "delete",
				"exempt": []
			}
		],
		"clean" : {
			"exempt": [
			"Only in /var/www/clean/wordpress/wp-admin/css: press-this-editor-rtl.css",
				"Only in /var/www/clean/wordpress/wp-admin/css: press-this-editor-rtl.min.css",
				"Only in /var/www/clean/wordpress/wp-admin/css: press-this-editor.css",
				"Only in /var/www/clean/wordpress/wp-admin/css: press-this-editor.min.css",
				"Only in /var/www/clean/wordpress/wp-admin/css: press-this-rtl.css",
				"Only in /var/www/clean/wordpress/wp-admin/css: press-this-rtl.min.css",
				"Only in /var/www/clean/wordpress/wp-admin/css: press-this.css",
				"Only in /var/www/clean/wordpress/wp-admin/css: press-this.min.css",
				"Only in /var/www/clean/wordpress/wp-admin/includes: class-wp-press-this.php",
				"Only in /var/www/clean/wordpress/wp-admin/js: bookmarklet.js",
				"Only in /var/www/clean/wordpress/wp-admin/js: bookmarklet.min.js",
				"Only in /var/www/clean/wordpress/wp-admin/js: press-this.js",
				"Only in /var/www/clean/wordpress/wp-admin/js: press-this.min.js",
				"Only in /var/www/clean/wordpress/wp-includes/js/mediaelement: background.png",
				"Only in /var/www/clean/wordpress/wp-includes/js/mediaelement: bigplay.png",
				"Only in /var/www/clean/wordpress/wp-includes/js/mediaelement: bigplay.svg",
				"Only in /var/www/clean/wordpress/wp-includes/js/mediaelement: controls.png",
				"Only in /var/www/clean/wordpress/wp-includes/js/mediaelement: controls.svg",
				"Only in /var/www/clean/wordpress/wp-includes/js/mediaelement: flashmediaelement.swf",
				"Only in /var/www/clean/wordpress/wp-includes/js/mediaelement: froogaloop.min.js",
				"Only in /var/www/clean/wordpress/wp-includes/js/mediaelement: jumpforward.png",
				"Only in /var/www/clean/wordpress/wp-includes/js/mediaelement: loading.gif",
				"Only in /var/www/clean/wordpress/wp-includes/js/mediaelement: silverlightmediaelement.xap",
				"Only in /var/www/clean/wordpress/wp-includes/js/mediaelement: skipback.png",
				"Only in /var/www/clean/wordpress/wp-includes/js/plupload: plupload.flash.swf",
				"Only in /var/www/clean/wordpress/wp-includes/js/plupload: plupload.full.min.js",
				"Only in /var/www/clean/wordpress/wp-includes/js/plupload: plupload.silverlight.xap",
				"Only in /var/www/clean/wordpress/wp-includes/js/swfupload: plugins",
				"Only in /var/www/clean/wordpress/wp-includes/js/swfupload: swfupload.swf",
			"Only in /var/www/redliontrader_com/wordpress/wp-content/plugins: wp-fastest-cache",
			"Only in /var/www/clean/wordpress/wp-includes/js/tinymce/plugins/media: moxieplayer.swf",
				"Only in /var/www/clean/wordpress/wp-includes/js/tinymce/plugins: wpembed",
				"Only in /var/www/clean/wordpress/wp-includes/js/tinymce/skins/lightgray/fonts: readme.md",
				"Only in /var/www/clean/wordpress/wp-includes/js/tinymce/skins/lightgray/fonts: tinymce.json",
				"Only in /var/www/clean/wordpress/wp-includes/js/tinymce/skins/lightgray/fonts: tinymce-small.json",
				"Only in /var/www/clean/wordpress/wp-includes/js/tinymce/skins/lightgray: skin.ie7.min.css",
				"Only in /var/www/clean/wordpress/wp-content/themes: twentyseventeen",
				"Only in /var/www/clean/wordpress: readme.html",
				 "Only in /var/www/clean/wordpress/wp-content/plugins: akismet",
			   "Only in /var/www/clean/wordpress/wp-content/plugins: hello.php",
			   "Only in /var/www/clean/wordpress/wp-content/themes: twentysixteen",
			    "Only in /var/www/redliontrader_com/wordpress: favicon.ico",
			   "Only in /var/www/redliontrader_com/wordpress: readme.85cdf1d9b69c71ea6fd8d666e9715a5d.html",
			   "Only in /var/www/redliontrader_com/wordpress: RLT.ico",
			   "Only in /var/www/redliontrader_com/wordpress: robots.txt",
			   "Only in /var/www/redliontrader_com/wordpress: site.xml",
			   "Only in /var/www/redliontrader_com/wordpress: user.sav",
			   "Only in /var/www/redliontrader_com/wordpress: wp-config.php",
			   "Only in /var/www/redliontrader_com/wordpress/wp-content: ads",
			   "Only in /var/www/redliontrader_com/wordpress/wp-content: avatars",
			   "Only in /var/www/redliontrader_com/wordpress/wp-content: banner-effect-banners",
			   "Only in /var/www/redliontrader_com/wordpress/wp-content: cache",
			   "Only in /var/www/redliontrader_com/wordpress/wp-content: development-theme",
			   "Only in /var/www/redliontrader_com/wordpress/wp-content: extensions",
			   "Only in /var/www/redliontrader_com/wordpress/wp-content: images",
			   "Only in /var/www/redliontrader_com/wordpress/wp-content: ledges",
			   "Only in /var/www/redliontrader_com/wordpress/wp-content: .listing",
			   "Only in /var/www/redliontrader_com/wordpress/wp-content: logs",
			   "Only in /var/www/redliontrader_com/wordpress/wp-content: nfwlog",
			   "Only in /var/www/redliontrader_com/wordpress/wp-content: p2",
			   "Only in /var/www/redliontrader_com/wordpress/wp-content/plugins: auto-prune-posts",
			   "Only in /var/www/redliontrader_com/wordpress/wp-content/plugins: elegant-themes-updater",
			   "Only in /var/www/redliontrader_com/wordpress/wp-content/plugins: feedwordpress",
			   "Only in /var/www/redliontrader_com/wordpress/wp-content/plugins: go-newrelic",
			   "Only in /var/www/redliontrader_com/wordpress/wp-content/plugins: google-sitemap-generator",
			   "Only in /var/www/clean/wordpress/wp-content/plugins: index.php",
			   "Only in /var/www/redliontrader_com/wordpress/wp-content/plugins: json-rest-api",
			   "Only in /var/www/redliontrader_com/wordpress/wp-content/plugins: rest-api",
			   "Only in /var/www/redliontrader_com/wordpress/wp-content/plugins: rvg-optimize-database",
			   "Only in /var/www/redliontrader_com/wordpress/wp-content/plugins: social-networks-auto-poster-facebook-twitter-g",
			   "Only in /var/www/redliontrader_com/wordpress/wp-content/plugins: woocommerce",
			   "Only in /var/www/redliontrader_com/wordpress/wp-content/plugins: wordpress-seo",
			   "Only in /var/www/redliontrader_com/wordpress/wp-content/plugins: wp-410",
			   "Only in /var/www/redliontrader_com/wordpress/wp-content: postedImages",
			   "Only in /var/www/redliontrader_com/wordpress/wp-content: stuff",
			   "Only in /var/www/redliontrader_com/wordpress/wp-content: sunrise.php",
			   "Only in /var/www/redliontrader_com/wordpress/wp-content: temp",
			   "Only in /var/www/redliontrader_com/wordpress/wp-content/themes: Divi",
			   "Only in /var/www/redliontrader_com/wordpress/wp-content/themes: divi_rlt",
			   "Files /var/www/clean/wordpress/wp-content/themes/index.php and /var/www/redliontrader_com/wordpress/wp-content/themes/index.php differ",
			   "Files /var/www/clean/wordpress/wp-content/themes/twentyfifteen/css/editor-style.css and /var/www/redliontrader_com/wordpress/wp-content/themes/twentyfifteen/css/editor-style.css differ",
			   "Files /var/www/clean/wordpress/wp-content/themes/twentyfifteen/functions.php and /var/www/redliontrader_com/wordpress/wp-content/themes/twentyfifteen/functions.php differ",
			   "Files /var/www/clean/wordpress/wp-content/themes/twentyfifteen/header.php and /var/www/redliontrader_com/wordpress/wp-content/themes/twentyfifteen/header.php differ",
			   "Files /var/www/clean/wordpress/wp-content/themes/twentyfifteen/inc/customizer.php and /var/www/redliontrader_com/wordpress/wp-content/themes/twentyfifteen/inc/customizer.php differ",
			   "Files /var/www/clean/wordpress/wp-content/themes/twentyfifteen/inc/template-tags.php and /var/www/redliontrader_com/wordpress/wp-content/themes/twentyfifteen/inc/template-tags.php differ",
			   "Files /var/www/clean/wordpress/wp-content/themes/twentyfifteen/js/functions.js and /var/www/redliontrader_com/wordpress/wp-content/themes/twentyfifteen/js/functions.js differ",
			   "Only in /var/www/redliontrader_com/wordpress/wp-content/themes/twentyfifteen: languages",
			   "Files /var/www/clean/wordpress/wp-content/themes/twentyfifteen/readme.txt and /var/www/redliontrader_com/wordpress/wp-content/themes/twentyfifteen/readme.txt differ",
			   "Files /var/www/clean/wordpress/wp-content/themes/twentyfifteen/screenshot.png and /var/www/redliontrader_com/wordpress/wp-content/themes/twentyfifteen/screenshot.png differ",
			   "Files /var/www/clean/wordpress/wp-content/themes/twentyfifteen/style.css and /var/www/redliontrader_com/wordpress/wp-content/themes/twentyfifteen/style.css differ",
			   "Only in /var/www/clean/wordpress/wp-content/themes: twentyfourteen",
			   "Only in /var/www/redliontrader_com/wordpress/wp-content/themes: wpbootstrap",
			   "Only in /var/www/redliontrader_com/wordpress/wp-content: tuploads",
			   "Only in /var/www/redliontrader_com/wordpress/wp-content: upgrade",
			   "Only in /var/www/redliontrader_com/wordpress/wp-content: uploads",
			   "Only in /var/www/redliontrader_com/wordpress/wp-content: w3-total-cache-config.php",
			   "Only in /var/www/redliontrader_com/wordpress/wp-content: xml-sitemap-feed"
			]
		}				
	},
	{
		"site":"wpress4.me",
		"type":"wordpress",
		"database" : "wpress4_me",
		"databaseUser" : "wpress4_me",
		"databasePassword" :"g2g1793",
		"root":"/var/www/wpress4_me/wordpress",
		"contacts":"watch@fortunesrocks.me",
		"ownerEmail":"forg@fortunesrocks.me",
		"ownerName":"marlin cobb",
		"user":"wpress4_me",
		"wpPermissions" : {
			"exempt" : [
				"attack-data.php",
				"config.php",
				"ips.php",
				"rules.php",
				"wafRules.rules"
			]
		},	
		"surveillance" : [
		],
		"clam": {
			"exempt" : [
				"/ninjafirewall/lib/share/sigs.txt: SecuriteInfo.com.JS.Exploit-16.UNOFFICIAL FOUND"
			]
		},
		"noPHP" : [
			{ 
				"path": "wp-content/uploads",
				"action": "delete",
				"exempt": []
			}
		],
		"clean" : {
			"exempt": [
"Only in /var/www/clean/wordpress/wp-admin/css: press-this-editor-rtl.css",
				"Only in /var/www/clean/wordpress/wp-admin/css: press-this-editor-rtl.min.css",
				"Only in /var/www/clean/wordpress/wp-admin/css: press-this-editor.css",
				"Only in /var/www/clean/wordpress/wp-admin/css: press-this-editor.min.css",
				"Only in /var/www/clean/wordpress/wp-admin/css: press-this-rtl.css",
				"Only in /var/www/clean/wordpress/wp-admin/css: press-this-rtl.min.css",
				"Only in /var/www/clean/wordpress/wp-admin/css: press-this.css",
				"Only in /var/www/clean/wordpress/wp-admin/css: press-this.min.css",
				"Only in /var/www/clean/wordpress/wp-admin/includes: class-wp-press-this.php",
				"Only in /var/www/clean/wordpress/wp-admin/js: bookmarklet.js",
				"Only in /var/www/clean/wordpress/wp-admin/js: bookmarklet.min.js",
				"Only in /var/www/clean/wordpress/wp-admin/js: press-this.js",
				"Only in /var/www/clean/wordpress/wp-admin/js: press-this.min.js",
				"Only in /var/www/clean/wordpress/wp-includes/js/mediaelement: background.png",
				"Only in /var/www/clean/wordpress/wp-includes/js/mediaelement: bigplay.png",
				"Only in /var/www/clean/wordpress/wp-includes/js/mediaelement: bigplay.svg",
				"Only in /var/www/clean/wordpress/wp-includes/js/mediaelement: controls.png",
				"Only in /var/www/clean/wordpress/wp-includes/js/mediaelement: controls.svg",
				"Only in /var/www/clean/wordpress/wp-includes/js/mediaelement: flashmediaelement.swf",
				"Only in /var/www/clean/wordpress/wp-includes/js/mediaelement: froogaloop.min.js",
				"Only in /var/www/clean/wordpress/wp-includes/js/mediaelement: jumpforward.png",
				"Only in /var/www/clean/wordpress/wp-includes/js/mediaelement: loading.gif",
				"Only in /var/www/clean/wordpress/wp-includes/js/mediaelement: silverlightmediaelement.xap",
				"Only in /var/www/clean/wordpress/wp-includes/js/mediaelement: skipback.png",
				"Only in /var/www/clean/wordpress/wp-includes/js/plupload: plupload.flash.swf",
				"Only in /var/www/clean/wordpress/wp-includes/js/plupload: plupload.full.min.js",
				"Only in /var/www/clean/wordpress/wp-includes/js/plupload: plupload.silverlight.xap",
				"Only in /var/www/clean/wordpress/wp-includes/js/swfupload: plugins",
				"Only in /var/www/clean/wordpress/wp-includes/js/swfupload: swfupload.swf",			
				"Only in /var/www/clean/wordpress/wp-includes/js/tinymce/plugins/media: moxieplayer.swf",
				"Only in /var/www/clean/wordpress/wp-includes/js/tinymce/plugins: wpembed",
				"Only in /var/www/clean/wordpress/wp-includes/js/tinymce/skins/lightgray/fonts: readme.md",
				"Only in /var/www/clean/wordpress/wp-includes/js/tinymce/skins/lightgray/fonts: tinymce.json",
				"Only in /var/www/clean/wordpress/wp-includes/js/tinymce/skins/lightgray/fonts: tinymce-small.json",
				"Only in /var/www/clean/wordpress/wp-includes/js/tinymce/skins/lightgray: skin.ie7.min.css",
				"Only in /var/www/wpress4_me/wordpress: wordfence-waf.php",
				"Only in /var/www/clean/wordpress/wp-content/themes: twentyseventeen",
				"Only in /var/www/clean/wordpress: readme.html",
				"Only in /var/www/clean/wordpress/wp-content/plugins: akismet",
			   "Only in /var/www/clean/wordpress/wp-content/plugins: hello.php",
			   "Only in /var/www/clean/wordpress/wp-content/themes: twentysixteen",
				"Only in /var/www/wpress4_me/wordpress: php5.ini",
				"Only in /var/www/wpress4_me/wordpress: php.ini",
				"Only in /var/www/wpress4_me/wordpress: php.ini.ninja1445566595",
				"Only in /var/www/wpress4_me/wordpress: readme.4ad276558a58ce80b685484e577ab753.html",
				"Only in /var/www/wpress4_me/wordpress: .user.ini",
				"Only in /var/www/wpress4_me/wordpress: user.ini",
				"Only in /var/www/wpress4_me/wordpress: wp-config.php",
				"Only in /var/www/wpress4_me/wordpress/wp-content: nfwlog",
				"Only in /var/www/wpress4_me/wordpress/wp-content/plugins: auto-prune-posts",
				"Only in /var/www/wpress4_me/wordpress/wp-content/plugins: delete-all-comments",
				"Only in /var/www/wpress4_me/wordpress/wp-content/plugins: disable-comments",
				"Only in /var/www/wpress4_me/wordpress/wp-content/plugins: feedwordpress",
				"Files /var/www/clean/wordpress/wp-content/plugins/index.php and /var/www/wpress4_me/wordpress/wp-content/plugins/index.php differ",
				"Only in /var/www/wpress4_me/wordpress/wp-content/plugins: login-security-solution",
				"Only in /var/www/wpress4_me/wordpress/wp-content/plugins: rvg-optimize-database",
				"Only in /var/www/wpress4_me/wordpress/wp-content/plugins: seo-ultimate",
				"Only in /var/www/wpress4_me/wordpress/wp-content/plugins: simple-tweet",
				"Only in /var/www/wpress4_me/wordpress/wp-content/plugins: stop-spammer-registrations-plugin",
				"Only in /var/www/wpress4_me/wordpress/wp-content/plugins: wordfence",
				"Only in /var/www/wpress4_me/wordpress/wp-content/plugins: wordpress-seo",
				"Only in /var/www/wpress4_me/wordpress/wp-content/plugins: wordpress-tweeter",
				"Only in /var/www/wpress4_me/wordpress/wp-content/plugins: wp-user-avatar",
				"Only in /var/www/wpress4_me/wordpress/wp-content/themes: dw-focus",
				"Files /var/www/clean/wordpress/wp-content/themes/index.php and /var/www/wpress4_me/wordpress/wp-content/themes/index.php differ",
				"Only in /var/www/wpress4_me/wordpress/wp-content/themes: twentyeleven",
				"Only in /var/www/wpress4_me/wordpress/wp-content/themes: twentythirteen",
				"Only in /var/www/wpress4_me/wordpress/wp-content/themes: twentytwelve",
				"Only in /var/www/wpress4_me/wordpress/wp-content/themes: wpress4.me",
				"Only in /var/www/wpress4_me/wordpress/wp-content: upgrade",
				"Only in /var/www/wpress4_me/wordpress/wp-content: uploads",
				"Only in /var/www/wpress4_me/wordpress/wp-content: wflogs",
				"Only in /var/www/wpress4_me/wordpress/wp-content: wp-rss-poster",
				"Only in /var/www/clean/wordpress/: readme.html"
			]
		}				
	},
	{
		"site":"mrtopstep.com",
		"type":"wordpress",
		"database": "mts",
		"databaseUser": "mts",
		"databasePassword":"g2g1793",
		"root":"/var/www/mrtopstep_com/wordpress/",
		"contacts":"watch@fortunesrocks.me",
		"ownerEmail":"info@mrtopstep.com",
		"ownerName":"Bob Schillaci",
		"user":"mrtopstep_com",
		"wpPermissions" : {
			"exempt" : [
				"attack-data.php",
				"config.php",
				"ips.php",
				"rules.php",
				"wafRules.rules",
				"readme.txt",
				"1688a8012731ea11faf2d50988bfff18d171633e.js",
				"4139b9ad7b935834d8d31961702681728a5a530a.js",
				"e15684fbe2f4be8c36e98ae0ad3d1110b96f23bb.js",
				"8a69c4d03fcc0aa9c7231ee8dc45e79cb92e3e9c.css",
				"cd00cf09019ffa5ad13db6fd5e892fe0722237e7.css",
				"ea819e4d811a20109528ce2d3bee9190a83bc87e.css",
				"f427883684ddebf3605beb665e2e9fecf9eb6fa9.css"
				
			]
		},	
		"surveillance" : [
			{
				"watch":"/var/www/mrtopstep_com/wordpress/wp-content/themes/newsanchor_mts/header.php",
				"clean":"/root/sites/mrtopstep_com/mrtopstep_com/wordpress/wp-content/themes/newsanchor_mts/header.php"
			}
		],	
		"clam": {
			"exempt" : [
				"/ninjafirewall/lib/share/sigs.txt: SecuriteInfo.com.JS.Exploit-16.UNOFFICIAL FOUND"
			]
		},
		"noPHP" : [
			{ 
				"path": "wp-content/uploads",
				"action": "delete",
				"exempt": []
			}
		],
		"clean" : {
			"exempt": [
				"Only in /var/www/mrtopstep_com/wordpress/: penobscot",
				"Files /var/www/clean/wordpress/wp-includes/cron.php and /var/www/mrtopstep_com/wordpress/wp-includes/cron.php differ",
				"Only in /var/www/mrtopstep_com/wordpress/wp-content/plugins: acf-to-rest-api",
				"Only in /var/www/mrtopstep_com/wordpress/wp-content/plugins: advanced-custom-fields",
				"Only in /var/www/mrtopstep_com/wordpress/wp-content/plugins: featured-image-from-url",
				"Files /var/www/clean/wordpress/wp-includes/cron.php",
				"Only in /var/www/clean/wordpress/wp-admin/css: press-this-editor-rtl.css",
				"Only in /var/www/clean/wordpress/wp-admin/css: press-this-editor-rtl.min.css",
				"Only in /var/www/clean/wordpress/wp-admin/css: press-this-editor.css",
				"Only in /var/www/clean/wordpress/wp-admin/css: press-this-editor.min.css",
				"Only in /var/www/clean/wordpress/wp-admin/css: press-this-rtl.css",
				"Only in /var/www/clean/wordpress/wp-admin/css: press-this-rtl.min.css",
				"Only in /var/www/clean/wordpress/wp-admin/css: press-this.css",
				"Only in /var/www/clean/wordpress/wp-admin/css: press-this.min.css",
				"Only in /var/www/clean/wordpress/wp-admin/includes: class-wp-press-this.php",
				"Only in /var/www/clean/wordpress/wp-admin/js: bookmarklet.js",
				"Only in /var/www/clean/wordpress/wp-admin/js: bookmarklet.min.js",
				"Only in /var/www/clean/wordpress/wp-admin/js: press-this.js",
				"Only in /var/www/clean/wordpress/wp-admin/js: press-this.min.js",
				"Only in /var/www/clean/wordpress/wp-includes/js/mediaelement: background.png",
				"Only in /var/www/clean/wordpress/wp-includes/js/mediaelement: bigplay.png",
				"Only in /var/www/clean/wordpress/wp-includes/js/mediaelement: bigplay.svg",
				"Only in /var/www/clean/wordpress/wp-includes/js/mediaelement: controls.png",
				"Only in /var/www/clean/wordpress/wp-includes/js/mediaelement: controls.svg",
				"Only in /var/www/clean/wordpress/wp-includes/js/mediaelement: flashmediaelement.swf",
				"Only in /var/www/clean/wordpress/wp-includes/js/mediaelement: froogaloop.min.js",
				"Only in /var/www/clean/wordpress/wp-includes/js/mediaelement: jumpforward.png",
				"Only in /var/www/clean/wordpress/wp-includes/js/mediaelement: loading.gif",
				"Only in /var/www/clean/wordpress/wp-includes/js/mediaelement: silverlightmediaelement.xap",
				"Only in /var/www/clean/wordpress/wp-includes/js/mediaelement: skipback.png",
				"Only in /var/www/clean/wordpress/wp-includes/js/plupload: plupload.flash.swf",
				"Only in /var/www/clean/wordpress/wp-includes/js/plupload: plupload.full.min.js",
				"Only in /var/www/clean/wordpress/wp-includes/js/plupload: plupload.silverlight.xap",
				"Only in /var/www/clean/wordpress/wp-includes/js/swfupload: plugins",
				"Only in /var/www/clean/wordpress/wp-includes/js/swfupload: swfupload.swf",
				"Only in /var/www/mrtopstep_com/wordpress/: .well-known",
				"Only in /var/www/mrtopstep_com/wordpress/wp-content/plugins: Basic-Auth-master",
				"Only in /var/www/mrtopstep_com/wordpress/wp-content/plugins: Basic-Auth-master.zip",
				"Only in /var/www/mrtopstep_com/wordpress/wp-content/plugins/akismet: class.akismet-rest-api.php",
				"Only in /var/www/mrtopstep_com/wordpress/wp-admin: meta",
				"Only in /var/www/mrtopstep_com/wordpress/wp-content/plugins: wp-fastest-cache",
				"Only in /var/www/mrtopstep_com/wordpress/: assets",
				"Only in /var/www/mrtopstep_com/wordpress/wp-content/plugins: duplicate-post",
				"Only in /var/www/mrtopstep_com/wordpress/wp-content/plugins: google-analytics-dashboard-for-wp",
				"Only in /var/www/mrtopstep_com/wordpress/: xronos",
				"Only in /var/www/clean/wordpress/wp-includes/js/tinymce/plugins/media: moxieplayer.swf",
				"Only in /var/www/clean/wordpress/wp-includes/js/tinymce/plugins: wpembed",
				"Only in /var/www/clean/wordpress/wp-includes/js/tinymce/skins/lightgray/fonts: readme.md",
				"Only in /var/www/clean/wordpress/wp-includes/js/tinymce/skins/lightgray/fonts: tinymce.json",
				"Only in /var/www/clean/wordpress/wp-includes/js/tinymce/skins/lightgray/fonts: tinymce-small.json",
				"Only in /var/www/clean/wordpress/wp-includes/js/tinymce/skins/lightgray: skin.ie7.min.css",
				"Files /var/www/clean/wordpress/wp-content/plugins/akismet/_inc/akismet.css and /var/www/mrtopstep_com/wordpress/wp-content/plugins/akismet/_inc/akismet.css differ",
				"Files /var/www/clean/wordpress/wp-content/plugins/akismet/_inc/akismet.js and /var/www/mrtopstep_com/wordpress/wp-content/plugins/akismet/_inc/akismet.js differ",
				"Files /var/www/clean/wordpress/wp-content/plugins/akismet/_inc/img/logo-full-2x.png and /var/www/mrtopstep_com/wordpress/wp-content/plugins/akismet/_inc/img/logo-full-2x.png differ",
				"Files /var/www/clean/wordpress/wp-content/plugins/akismet/akismet.php and /var/www/mrtopstep_com/wordpress/wp-content/plugins/akismet/akismet.php differ",
				"Files /var/www/clean/wordpress/wp-content/plugins/akismet/class.akismet-admin.php and /var/www/mrtopstep_com/wordpress/wp-content/plugins/akismet/class.akismet-admin.php differ",
				"Files /var/www/clean/wordpress/wp-content/plugins/akismet/class.akismet.php and /var/www/mrtopstep_com/wordpress/wp-content/plugins/akismet/class.akismet.php differ",
				"Files /var/www/clean/wordpress/wp-content/plugins/akismet/views/config.php and /var/www/mrtopstep_com/wordpress/wp-content/plugins/akismet/views/config.php differ",
				"Files /var/www/clean/wordpress/wp-content/plugins/akismet/views/get.php and /var/www/mrtopstep_com/wordpress/wp-content/plugins/akismet/views/get.php differ",
				"Files /var/www/clean/wordpress/wp-content/plugins/akismet/views/notice.php and /var/www/mrtopstep_com/wordpress/wp-content/plugins/akismet/views/notice.php differ",
				"Files /var/www/clean/wordpress/wp-content/plugins/akismet/views/start.php and /var/www/mrtopstep_com/wordpress/wp-content/plugins/akismet/views/start.php differ",
				"Files /var/www/clean/wordpress/wp-content/plugins/akismet/views/stats.php and /var/www/mrtopstep_com/wordpress/wp-content/plugins/akismet/views/stats.php differ",
				"Only in /var/www/clean/wordpress/wp-content/plugins/akismet/views: strict.php",
				"Files /var/www/clean/wordpress/wp-content/plugins/akismet/wrapper.php and /var/www/mrtopstep_com/wordpress/wp-content/plugins/akismet/wrapper.php differ",
				"Files /var/www/clean/wordpress/wp-content/plugins/akismet/wrapper.php and /var/www/mrtopstep_com/wordpress/wp-content/plugins/akismet/wrapper.php differ",
				"Files /var/www/clean/wordpress/wp-content/plugins/akismet/readme.txt and /var/www/mrtopstep_com/wordpress/wp-content/plugins/akismet/readme.txt differ",
				"Only in /var/www/mrtopstep_com/wordpress/wp-content/plugins: woocommerce-gateway-stripe",
				"Only in /var/www/mrtopstep_com/wordpress/wp-content/plugins: groups",
				"Only in /var/www/mrtopstep_com/wordpress/wp-content/plugins: groups-woocommerce",
				"Only in /var/www/mrtopstep_com/wordpress/wp-content/plugins: mailpoet-woocommerce-add-on",
				"Only in /var/www/mrtopstep_com/wordpress/wp-content/plugins: woocommerce-subscriptions",
				"Only in /var/www/clean/wordpress/wp-content/themes: twentyseventeen",
				"Only in /var/www/clean/wordpress: readme.html",
				"Only in /var/www/clean/wordpress/wp-content/plugins: akismet",
				"Only in /var/www/clean/wordpress/wp-content/plugins: hello.php",
				"Only in /var/www/clean/wordpress/wp-content/themes: twentysixteen",
				"Only in /var/www/mrtopstep_com/wordpress/: .bash_history",
				"Only in /var/www/mrtopstep_com/wordpress/: F0CEC329ECC8DD2B86FFE7880165F4C1.txt",
				"Only in /var/www/mrtopstep_com/wordpress/: google043b280a9c09eacd.html",
				"Only in /var/www/mrtopstep_com/wordpress/: .htaccess",
				"Only in /var/www/mrtopstep_com/wordpress/: l",
				"Only in /var/www/mrtopstep_com/wordpress/: nortonsw_5532f990-0e07-0.html",
				"Only in /var/www/mrtopstep_com/wordpress/: readme.39b27029d267827d16a9c4eb7c9e142a.html",
				"Only in /var/www/mrtopstep_com/wordpress/: .user.ini",
				"Only in /var/www/mrtopstep_com/wordpress/: wordfence-waf.php",
				"Only in /var/www/mrtopstep_com/wordpress/: wp-config.php",
				"Only in /var/www/mrtopstep_com/wordpress/wp-content: advanced-cache.php",
				"Only in /var/www/mrtopstep_com/wordpress/wp-content: boot",
				"Only in /var/www/mrtopstep_com/wordpress/wp-content: cache",
				"Only in /var/www/mrtopstep_com/wordpress/wp-content: extensions",
				"Only in /var/www/mrtopstep_com/wordpress/wp-content: logs",
				"Only in /var/www/mrtopstep_com/wordpress/wp-content: mu-plugins",
				"Only in /var/www/mrtopstep_com/wordpress/wp-content/plugins: auto-post-thumbnail",
				"Only in /var/www/mrtopstep_com/wordpress/wp-content/plugins: auto-prune-posts",
				"Only in /var/www/mrtopstep_com/wordpress/wp-content/plugins: beaver-builder-lite-version",
				"Only in /var/www/mrtopstep_com/wordpress/wp-content/plugins: cloudflare",
				"Only in /var/www/mrtopstep_com/wordpress/wp-content/plugins: contact-form-7",
				"Only in /var/www/mrtopstep_com/wordpress/wp-content/plugins: embedplus-for-wordpress",
				"Only in /var/www/mrtopstep_com/wordpress/wp-content/plugins: google-analytics-for-wordpress",
				"Only in /var/www/mrtopstep_com/wordpress/wp-content/plugins: google-document-embedder",
				"Files /var/www/clean/wordpress/wp-content/plugins/index.php and /var/www/mrtopstep_com/wordpress/wp-content/plugins/index.php differ",
				"Only in /var/www/mrtopstep_com/wordpress/wp-content/plugins: meks-easy-ads-widget",
				"Only in /var/www/mrtopstep_com/wordpress/wp-content/plugins: members",
				"Only in /var/www/mrtopstep_com/wordpress/wp-content/plugins: nxs-snap-pro-upgrade",
				"Only in /var/www/mrtopstep_com/wordpress/wp-content/plugins: photo-dropper",
				"Only in /var/www/mrtopstep_com/wordpress/wp-content/plugins: quick-pagepost-redirect-plugin",
				"Only in /var/www/mrtopstep_com/wordpress/wp-content/plugins: s2member-files",
				"Only in /var/www/mrtopstep_com/wordpress/wp-content/plugins: s2member-logs",
				"Only in /var/www/mrtopstep_com/wordpress/wp-content/plugins: save-grab",
				"Only in /var/www/mrtopstep_com/wordpress/wp-content/plugins: shortcodes-ultimate",
				"Only in /var/www/mrtopstep_com/wordpress/wp-content/plugins: social-autho-bio",
				"Only in /var/www/mrtopstep_com/wordpress/wp-content/plugins: social-media-feather",
				"Only in /var/www/mrtopstep_com/wordpress/wp-content/plugins: social-networks-auto-poster-facebook-twitter-g",
				"Only in /var/www/mrtopstep_com/wordpress/wp-content/plugins: stripe",
				"Only in /var/www/mrtopstep_com/wordpress/wp-content/plugins: stripe-payments",
				"Only in /var/www/mrtopstep_com/wordpress/wp-content/plugins: tag-select-meta-box",
				"Only in /var/www/mrtopstep_com/wordpress/wp-content/plugins: tinymce-advanced",
				"Only in /var/www/mrtopstep_com/wordpress/wp-content/plugins: twitter",
				"Only in /var/www/mrtopstep_com/wordpress/wp-content/plugins: types",
				"Only in /var/www/mrtopstep_com/wordpress/wp-content/plugins: video-thumbnails",
				"Only in /var/www/mrtopstep_com/wordpress/wp-content/plugins: widget-logic",
				"Only in /var/www/mrtopstep_com/wordpress/wp-content/plugins: woocommerce",
				"Only in /var/www/mrtopstep_com/wordpress/wp-content/plugins: wordfence",
				"Only in /var/www/mrtopstep_com/wordpress/wp-content/plugins: wordpress-seo",
				"Only in /var/www/mrtopstep_com/wordpress/wp-content/plugins: wpfront-notification-bar",
				"Only in /var/www/mrtopstep_com/wordpress/wp-content/plugins: wp-rss-multi-importer",
				"Only in /var/www/mrtopstep_com/wordpress/wp-content/plugins: wp-scheduled-posts",
				"Only in /var/www/mrtopstep_com/wordpress/wp-content/plugins: wysija-newsletters",
				"Only in /var/www/mrtopstep_com/wordpress/wp-content/plugins: wysija-newsletters-premium",
				"Files /var/www/clean/wordpress/wp-content/themes/index.php and /var/www/mrtopstep_com/wordpress/wp-content/themes/index.php differ",
				"Only in /var/www/mrtopstep_com/wordpress/wp-content/themes: newsanchor",
				"Only in /var/www/mrtopstep_com/wordpress/wp-content/themes: newsanchor_mts",
				"Only in /var/www/clean/wordpress/wp-content/themes: twentyfifteen",
				"Only in /var/www/clean/wordpress/wp-content/themes: twentyfourteen",
				"Only in /var/www/mrtopstep_com/wordpress/wp-content: themes-ai1ec",
				"Only in /var/www/mrtopstep_com/wordpress/wp-content: updraft",
				"Only in /var/www/mrtopstep_com/wordpress/wp-content: upgrade",
				"Only in /var/www/mrtopstep_com/wordpress/wp-content: uploads",
				"Only in /var/www/mrtopstep_com/wordpress/wp-content: wfcache",
				"Only in /var/www/mrtopstep_com/wordpress/wp-content: wflogs",
				"Only in /var/www/mrtopstep_com/wordpress/wp-content: wp-user-avatar",
				"Only in /var/www/mrtopstep_com/wordpress/: yandex_72e7af5e7c78560a.html",
				"Only in /var/www/clean/wordpress/: readme.html",
				"Only in /var/www/mrtopstep_com/wordpress/wp-content/plugins: image-zoom",
				"Only in /var/www/mrtopstep_com/wordpress/wp-content/plugins: push-notifications-for-wp",
				"Only in /var/www/mrtopstep_com/wordpress/wp-content: sedlex"
			]
		}		
	},
	{
		"site":"structuraltrading.com",
		"type":"wordpress",
		"database": "structuraltrading_com",
		"databaseUser": "structural",
		"databasePassword":"g2g1793",
		"root":"/var/www/structuraltrading_com/wordpress",
		"contacts":"watch@fortunesrocks.me",
		"ownerEmail":"kathy@structuraltrading.com",
		"ownerName":"Kathy Garber",
		"user":"structuraltrading_com",
		"wpPermissions" : {
			"exempt" : [
				"attack-data.php",
				"config.php",
				"ips.php",
				"rules.php",
				"wafRules.rules"
			]
		},	
		"surveillance" : [
			{
				"watch":"/var/www/structuraltrading_com/wordpress/wp-content/themes/structuraltrading/header.php",
				"clean":"/root/sites/structuraltrading_com/wp-content/themes/structuraltrading/header.php"
			}
		],
		"clam": {
			"exempt" : [
				"/ninjafirewall/lib/share/sigs.txt: SecuriteInfo.com.JS.Exploit-16.UNOFFICIAL FOUND"
			]
		},
		"noPHP" : [
			{ 
				"path": "wp-content/uploads",
				"action": "delete",
				"exempt": []
			}
		],
		"clean" : {
			"exempt": [
			"Only in /var/www/clean/wordpress/wp-admin/css: press-this-editor-rtl.css",
				"Only in /var/www/clean/wordpress/wp-admin/css: press-this-editor-rtl.min.css",
				"Only in /var/www/clean/wordpress/wp-admin/css: press-this-editor.css",
				"Only in /var/www/clean/wordpress/wp-admin/css: press-this-editor.min.css",
				"Only in /var/www/clean/wordpress/wp-admin/css: press-this-rtl.css",
				"Only in /var/www/clean/wordpress/wp-admin/css: press-this-rtl.min.css",
				"Only in /var/www/clean/wordpress/wp-admin/css: press-this.css",
				"Only in /var/www/clean/wordpress/wp-admin/css: press-this.min.css",
				"Only in /var/www/clean/wordpress/wp-admin/includes: class-wp-press-this.php",
				"Only in /var/www/clean/wordpress/wp-admin/js: bookmarklet.js",
				"Only in /var/www/clean/wordpress/wp-admin/js: bookmarklet.min.js",
				"Only in /var/www/clean/wordpress/wp-admin/js: press-this.js",
				"Only in /var/www/clean/wordpress/wp-admin/js: press-this.min.js",
				"Only in /var/www/clean/wordpress/wp-includes/js/mediaelement: background.png",
				"Only in /var/www/clean/wordpress/wp-includes/js/mediaelement: bigplay.png",
				"Only in /var/www/clean/wordpress/wp-includes/js/mediaelement: bigplay.svg",
				"Only in /var/www/clean/wordpress/wp-includes/js/mediaelement: controls.png",
				"Only in /var/www/clean/wordpress/wp-includes/js/mediaelement: controls.svg",
				"Only in /var/www/clean/wordpress/wp-includes/js/mediaelement: flashmediaelement.swf",
				"Only in /var/www/clean/wordpress/wp-includes/js/mediaelement: froogaloop.min.js",
				"Only in /var/www/clean/wordpress/wp-includes/js/mediaelement: jumpforward.png",
				"Only in /var/www/clean/wordpress/wp-includes/js/mediaelement: loading.gif",
				"Only in /var/www/clean/wordpress/wp-includes/js/mediaelement: silverlightmediaelement.xap",
				"Only in /var/www/clean/wordpress/wp-includes/js/mediaelement: skipback.png",
				"Only in /var/www/clean/wordpress/wp-includes/js/plupload: plupload.flash.swf",
				"Only in /var/www/clean/wordpress/wp-includes/js/plupload: plupload.full.min.js",
				"Only in /var/www/clean/wordpress/wp-includes/js/plupload: plupload.silverlight.xap",
				"Only in /var/www/clean/wordpress/wp-includes/js/swfupload: plugins",
				"Only in /var/www/clean/wordpress/wp-includes/js/swfupload: swfupload.swf",
				"Only in /var/www/clean/wordpress/wp-includes/js/tinymce/plugins/media: moxieplayer.swf",
				"Only in /var/www/clean/wordpress/wp-includes/js/tinymce/plugins: wpembed",
				"Only in /var/www/clean/wordpress/wp-includes/js/tinymce/skins/lightgray/fonts: readme.md",
				"Only in /var/www/clean/wordpress/wp-includes/js/tinymce/skins/lightgray/fonts: tinymce.json",
				"Only in /var/www/clean/wordpress/wp-includes/js/tinymce/skins/lightgray/fonts: tinymce-small.json",
				"Only in /var/www/clean/wordpress/wp-includes/js/tinymce/skins/lightgray: skin.ie7.min.css",
				"Only in /var/www/structuraltrading_com/wordpress/wp-content/plugins: email-subscribers",
				"Only in /var/www/structuraltrading_com/wordpress/wp-content/plugins: captcha",
				"Only in /var/www/clean/wordpress/wp-content/themes: twentyseventeen",
				"Only in /var/www/clean/wordpress: readme.html",
				 "Only in /var/www/clean/wordpress/wp-content/plugins: akismet",
			   "Only in /var/www/clean/wordpress/wp-content/plugins: hello.php",
			   "Only in /var/www/clean/wordpress/wp-content/themes: twentysixteen",
			   "Only in /var/www/structuraltrading_com/wordpress: .htaccess",
			   "Only in /var/www/structuraltrading_com/wordpress: readme.d7bfba34eac574de0c61ca265c035ca1.html",
			   "Only in /var/www/structuraltrading_com/wordpress: .user.ini",
			   "Only in /var/www/structuraltrading_com/wordpress: wordfence-waf.php",
			   "Only in /var/www/structuraltrading_com/wordpress: wp-config.php",
			   "Only in /var/www/structuraltrading_com/wordpress/wp-content: cache",
			   "Only in /var/www/structuraltrading_com/wordpress/wp-content: extensions",
			   "Only in /var/www/structuraltrading_com/wordpress/wp-content: flagallery",
			   "Only in /var/www/structuraltrading_com/wordpress/wp-content: logs",
			   "Only in /var/www/structuraltrading_com/wordpress/wp-content: media",
			   "Only in /var/www/structuraltrading_com/wordpress/wp-content/plugins: affiliates-pro",
			   "Only in /var/www/structuraltrading_com/wordpress/wp-content/plugins: affiliates-s2member",
			   "Only in /var/www/structuraltrading_com/wordpress/wp-content/plugins: blog-protector",
			   "Only in /var/www/structuraltrading_com/wordpress/wp-content/plugins: custom-meta-widget",
			   "Only in /var/www/structuraltrading_com/wordpress/wp-content/plugins: delete-pending-comments",
			   "Only in /var/www/structuraltrading_com/wordpress/wp-content/plugins: disable-comments",
			   "Only in /var/www/structuraltrading_com/wordpress/wp-content/plugins: duplicate-post",
			   "Only in /var/www/structuraltrading_com/wordpress/wp-content/plugins: email-users",
			   "Only in /var/www/structuraltrading_com/wordpress/wp-content/plugins: flagallery-skins",
			   "Only in /var/www/structuraltrading_com/wordpress/wp-content/plugins: google-analytics-for-wordpress",
			   "Only in /var/www/structuraltrading_com/wordpress/wp-content/plugins: images",
			   "Only in /var/www/structuraltrading_com/wordpress/wp-content/plugins: includes",
			   "Files /var/www/clean/wordpress/wp-content/plugins/index.php and /var/www/structuraltrading_com/wordpress/wp-content/plugins/index.php differ",
			   "Only in /var/www/structuraltrading_com/wordpress/wp-content/plugins: jw-player-plugin-for-wordpress",
			   "Only in /var/www/structuraltrading_com/wordpress/wp-content/plugins: kimili-flash-embed",
			   "Only in /var/www/structuraltrading_com/wordpress/wp-content/plugins: landing-pages",
			   "Only in /var/www/structuraltrading_com/wordpress/wp-content/plugins: licensing",
			   "Only in /var/www/structuraltrading_com/wordpress/wp-content/plugins: newsletter",
			   "Only in /var/www/structuraltrading_com/wordpress/wp-content/plugins: no-s2member-pro",
			   "Only in /var/www/structuraltrading_com/wordpress/wp-content/plugins: official-statcounter-plugin-for-wordpress",
			   "Only in /var/www/structuraltrading_com/wordpress/wp-content/plugins: plugins",
			   "Only in /var/www/structuraltrading_com/wordpress/wp-content/plugins: pro-module.php",
			   "Only in /var/www/structuraltrading_com/wordpress/wp-content/plugins: readme.txt",
			   "Only in /var/www/structuraltrading_com/wordpress/wp-content/plugins: s2member",
			   "Only in /var/www/structuraltrading_com/wordpress/wp-content/plugins: s2member-files",
			   "Only in /var/www/structuraltrading_com/wordpress/wp-content/plugins: s2member-logs",
			   "Only in /var/www/structuraltrading_com/wordpress/wp-content/plugins: s2member-pro",
			   "Only in /var/www/structuraltrading_com/wordpress/wp-content/plugins: s2member-pro.zip",
			   "Only in /var/www/structuraltrading_com/wordpress/wp-content/plugins: simple-access-control",
			   "Only in /var/www/structuraltrading_com/wordpress/wp-content/plugins: simple-meta-tags",
			   "Only in /var/www/structuraltrading_com/wordpress/wp-content/plugins: sticky-slider",
			   "Only in /var/www/structuraltrading_com/wordpress/wp-content/plugins: stop-spammer-registrations-plugin",
			   "Only in /var/www/structuraltrading_com/wordpress/wp-content/plugins: temp",
			   "Only in /var/www/structuraltrading_com/wordpress/wp-content/plugins: tmp",
			   "Only in /var/www/structuraltrading_com/wordpress/wp-content/plugins: twitter-widget-pro",
			   "Only in /var/www/structuraltrading_com/wordpress/wp-content/plugins: user-switching",
			   "Only in /var/www/structuraltrading_com/wordpress/wp-content/plugins: wck-custom-fields-and-custom-post-types-creator",
			   "Only in /var/www/structuraltrading_com/wordpress/wp-content/plugins: wm-simple-captcha",
			   "Only in /var/www/structuraltrading_com/wordpress/wp-content/plugins: wordfence",
			   "Only in /var/www/structuraltrading_com/wordpress/wp-content/plugins: wordpress-seo",
			   "Only in /var/www/structuraltrading_com/wordpress/wp-content/plugins: wp-email-users",
			   "Only in /var/www/structuraltrading_com/wordpress/wp-content/plugins: wp-php-widget",
			   "Only in /var/www/structuraltrading_com/wordpress/wp-content/plugins: wp-show-ids",
			   "Only in /var/www/structuraltrading_com/wordpress/wp-content: ptemp",
			   "Files /var/www/clean/wordpress/wp-content/themes/index.php and /var/www/structuraltrading_com/wordpress/wp-content/themes/index.php differ",
			   "Only in /var/www/structuraltrading_com/wordpress/wp-content/themes: structuraltrading",
			   "Only in /var/www/structuraltrading_com/wordpress/wp-content/themes: twentyeleven",
			   "Only in /var/www/structuraltrading_com/wordpress/wp-content/themes: twentyten",
			   "Only in /var/www/structuraltrading_com/wordpress/wp-content/themes: twentythirteen",
			   "Only in /var/www/structuraltrading_com/wordpress/wp-content/themes: twentytwelve",
			   "Only in /var/www/structuraltrading_com/wordpress/wp-content: upgrade",
			   "Only in /var/www/structuraltrading_com/wordpress/wp-content: uploads",
			   "Only in /var/www/structuraltrading_com/wordpress/wp-content: wfcache",
			   "Only in /var/www/structuraltrading_com/wordpress/wp-content: wflogs",
				"Only in /var/www/clean/wordpress/: readme.html",   
				"Files /var/www/clean/wordpress/wp-content/themes/twentyfifteen/inc/template-tags.php and /var/www/structuraltrading_com/wordpress/wp-content/themes/twentyfifteen/inc/template-tags.php differ",
				"Files /var/www/clean/wordpress/wp-content/themes/twentyfifteen/readme.txt and /var/www/structuraltrading_com/wordpress/wp-content/themes/twentyfifteen/readme.txt differ",
				"Files /var/www/clean/wordpress/wp-content/themes/twentyfifteen/rtl.css and /var/www/structuraltrading_com/wordpress/wp-content/themes/twentyfifteen/rtl.css differ",
				"Files /var/www/clean/wordpress/wp-content/themes/twentyfifteen/style.css and /var/www/structuraltrading_com/wordpress/wp-content/themes/twentyfifteen/style.css differ"
			]
		}				
	}
]